{
	"extends": ["tslint:recommended", "tslint-config-standard", "tslint-config-prettier"],
	"rules": {
		"ordered-imports": true,
		"no-duplicate-variable": true,
		"no-unused-variable": true,
		"curly": [true, "ignore-same-line"],
		"triple-equals": [
			true,
			"allow-null-check"
		],
		"no-var-keyword": true,
		"prefer-for-of": true,
		"prefer-const": true,
		"no-unused-expression": false,
		"object-literal-sort-keys": false,
		"interface-name": false,
		"max-classes-per-file": false,
		"member-access": false,
		"array-type": false,
		"forin": false,
		"no-shadowed-variable": false,
		"no-console": false,
		"one-variable-per-declaration": false,
		"no-bitwise": false,
		"no-empty": false,
		"no-var-requires": false,
		"no-floating-promises": false
	}
}
